[gd_scene load_steps=9 format=2]

[ext_resource path="res://scripts/player.gd" type="Script" id=1]
[ext_resource path="res://assets/graphics/dunjo_tileset.png" type="Texture" id=2]

[sub_resource type="Animation" id=2]
resource_name = "idle_left"
tracks/0/type = "value"
tracks/0/path = NodePath("sprite:frame")
tracks/0/interp = 1
tracks/0/loop_wrap = true
tracks/0/imported = false
tracks/0/enabled = true
tracks/0/keys = {
"times": PoolRealArray( 0 ),
"transitions": PoolRealArray( 1 ),
"update": 1,
"values": [ 21 ]
}
tracks/1/type = "value"
tracks/1/path = NodePath("sprite:scale")
tracks/1/interp = 1
tracks/1/loop_wrap = true
tracks/1/imported = false
tracks/1/enabled = true
tracks/1/keys = {
"times": PoolRealArray( 0 ),
"transitions": PoolRealArray( 1 ),
"update": 0,
"values": [ Vector2( -1, 1 ) ]
}
tracks/2/type = "value"
tracks/2/path = NodePath("CollisionShape2D:position")
tracks/2/interp = 1
tracks/2/loop_wrap = true
tracks/2/imported = false
tracks/2/enabled = true
tracks/2/keys = {
"times": PoolRealArray( 0 ),
"transitions": PoolRealArray( 1 ),
"update": 0,
"values": [ Vector2( -0.5, 0 ) ]
}

[sub_resource type="Animation" id=3]
resource_name = "idle_right"
step = 0.5
tracks/0/type = "value"
tracks/0/path = NodePath("sprite:frame")
tracks/0/interp = 1
tracks/0/loop_wrap = true
tracks/0/imported = false
tracks/0/enabled = true
tracks/0/keys = {
"times": PoolRealArray( 0 ),
"transitions": PoolRealArray( 1 ),
"update": 1,
"values": [ 21 ]
}
tracks/1/type = "value"
tracks/1/path = NodePath("sprite:scale")
tracks/1/interp = 1
tracks/1/loop_wrap = true
tracks/1/imported = false
tracks/1/enabled = true
tracks/1/keys = {
"times": PoolRealArray( 0 ),
"transitions": PoolRealArray( 1 ),
"update": 0,
"values": [ Vector2( 1, 1 ) ]
}
tracks/2/type = "value"
tracks/2/path = NodePath("CollisionShape2D:position")
tracks/2/interp = 1
tracks/2/loop_wrap = true
tracks/2/imported = false
tracks/2/enabled = true
tracks/2/keys = {
"times": PoolRealArray( 0 ),
"transitions": PoolRealArray( 1 ),
"update": 0,
"values": [ Vector2( 0.5, 0 ) ]
}

[sub_resource type="Animation" id=5]
resource_name = "walk_left"
loop = true
step = 0.5
tracks/0/type = "value"
tracks/0/path = NodePath("sprite:frame")
tracks/0/interp = 1
tracks/0/loop_wrap = true
tracks/0/imported = false
tracks/0/enabled = true
tracks/0/keys = {
"times": PoolRealArray( 0, 0.5 ),
"transitions": PoolRealArray( 1, 1 ),
"update": 1,
"values": [ 22, 23 ]
}
tracks/1/type = "value"
tracks/1/path = NodePath("sprite:scale")
tracks/1/interp = 1
tracks/1/loop_wrap = true
tracks/1/imported = false
tracks/1/enabled = true
tracks/1/keys = {
"times": PoolRealArray( 0 ),
"transitions": PoolRealArray( 1 ),
"update": 0,
"values": [ Vector2( -1, 1 ) ]
}
tracks/2/type = "value"
tracks/2/path = NodePath("CollisionShape2D:position")
tracks/2/interp = 1
tracks/2/loop_wrap = true
tracks/2/imported = false
tracks/2/enabled = true
tracks/2/keys = {
"times": PoolRealArray( 0 ),
"transitions": PoolRealArray( 1 ),
"update": 0,
"values": [ Vector2( -0.5, 0 ) ]
}

[sub_resource type="Animation" id=4]
resource_name = "walk_right"
loop = true
step = 0.5
tracks/0/type = "value"
tracks/0/path = NodePath("sprite:frame")
tracks/0/interp = 1
tracks/0/loop_wrap = true
tracks/0/imported = false
tracks/0/enabled = true
tracks/0/keys = {
"times": PoolRealArray( 0, 0.5 ),
"transitions": PoolRealArray( 1, 1 ),
"update": 1,
"values": [ 22, 23 ]
}
tracks/1/type = "value"
tracks/1/path = NodePath("sprite:scale")
tracks/1/interp = 1
tracks/1/loop_wrap = true
tracks/1/imported = false
tracks/1/enabled = true
tracks/1/keys = {
"times": PoolRealArray( 0 ),
"transitions": PoolRealArray( 1 ),
"update": 0,
"values": [ Vector2( 1, 1 ) ]
}
tracks/2/type = "value"
tracks/2/path = NodePath("CollisionShape2D:position")
tracks/2/interp = 1
tracks/2/loop_wrap = true
tracks/2/imported = false
tracks/2/enabled = true
tracks/2/keys = {
"times": PoolRealArray( 0 ),
"transitions": PoolRealArray( 1 ),
"update": 0,
"values": [ Vector2( 0.5, 0 ) ]
}

[sub_resource type="RectangleShape2D" id=1]
extents = Vector2( 3.5, 4 )

[sub_resource type="RectangleShape2D" id=6]
extents = Vector2( 4, 4 )

[node name="player" type="KinematicBody2D"]
script = ExtResource( 1 )

[node name="anim" type="AnimationPlayer" parent="."]
playback_speed = 4.0
anims/idle_left = SubResource( 2 )
anims/idle_right = SubResource( 3 )
anims/walk_left = SubResource( 5 )
anims/walk_right = SubResource( 4 )

[node name="sprite" type="Sprite" parent="."]
scale = Vector2( -1, 1 )
texture = ExtResource( 2 )
vframes = 5
hframes = 9
frame = 21

[node name="CollisionShape2D" type="CollisionShape2D" parent="."]
visible = false
position = Vector2( -0.5, 0 )
shape = SubResource( 1 )

[node name="hitbox" type="Area2D" parent="."]
visible = false

[node name="CollisionShape2D" type="CollisionShape2D" parent="hitbox"]
shape = SubResource( 6 )

