[gd_scene load_steps=4 format=2]

[ext_resource path="res://scripts/yoku.gd" type="Script" id=1]
[ext_resource path="res://assets/graphics/dunjo_tileset.png" type="Texture" id=2]

[sub_resource type="RectangleShape2D" id=1]
extents = Vector2( 6, 6 )

[node name="yoku" type="StaticBody2D"]
script = ExtResource( 1 )

[node name="sprite" type="Sprite" parent="."]
texture = ExtResource( 2 )
vframes = 5
hframes = 9
frame = 35

[node name="CollisionShape2D" type="CollisionShape2D" parent="."]
visible = false
shape = SubResource( 1 )

